%YAML 1.1
%TAG !u! tag:unity3d.com,2011:
--- !u!1045 &1
EditorBuildSettings:
  m_ObjectHideFlags: 0
  serializedVersion: 2
  m_Scenes:
  - enabled: 0
    path: 
    guid: 00000000000000000000000000000000
  - enabled: 1
    path: Assets/Scenes/Menu.unity
    guid: 8a46b50c54bf87e49b50a46b0c0d3136
  - enabled: 1
    path: Assets/Scenes/Nivel 2.unity
    guid: f9443d5d0bdbf42448c6558ac3610605
  m_configObjects: {}
