%YAML 1.1
%TAG !u! tag:unity3d.com,2011:
--- !u!1001 &3257416406214198860
PrefabInstance:
  m_ObjectHideFlags: 0
  serializedVersion: 2
  m_Modification:
    m_TransformParent: {fileID: 0}
    m_Modifications:
    - target: {fileID: 3273906336059927240, guid: 2b927fcd9c1d2124cac2392422329ee5,
        type: 3}
      propertyPath: m_LocalPosition.x
      value: 0
      objectReference: {fileID: 0}
    - target: {fileID: 3273906336059927240, guid: 2b927fcd9c1d2124cac2392422329ee5,
        type: 3}
      propertyPath: m_LocalPosition.y
      value: 0
      objectReference: {fileID: 0}
    - target: {fileID: 3273906336059927240, guid: 2b927fcd9c1d2124cac2392422329ee5,
        type: 3}
      propertyPath: m_LocalPosition.z
      value: 0
      objectReference: {fileID: 0}
    - target: {fileID: 3273906336059927240, guid: 2b927fcd9c1d2124cac2392422329ee5,
        type: 3}
      propertyPath: m_LocalRotation.x
      value: -0.7071068
      objectReference: {fileID: 0}
    - target: {fileID: 3273906336059927240, guid: 2b927fcd9c1d2124cac2392422329ee5,
        type: 3}
      propertyPath: m_LocalRotation.y
      value: -0
      objectReference: {fileID: 0}
    - target: {fileID: 3273906336059927240, guid: 2b927fcd9c1d2124cac2392422329ee5,
        type: 3}
      propertyPath: m_LocalRotation.z
      value: -0
      objectReference: {fileID: 0}
    - target: {fileID: 3273906336059927240, guid: 2b927fcd9c1d2124cac2392422329ee5,
        type: 3}
      propertyPath: m_LocalRotation.w
      value: 0.7071068
      objectReference: {fileID: 0}
    - target: {fileID: 3273906336059927240, guid: 2b927fcd9c1d2124cac2392422329ee5,
        type: 3}
      propertyPath: m_RootOrder
      value: 0
      objectReference: {fileID: 0}
    - target: {fileID: 3273906336059927240, guid: 2b927fcd9c1d2124cac2392422329ee5,
        type: 3}
      propertyPath: m_LocalEulerAnglesHint.x
      value: -90
      objectReference: {fileID: 0}
    - target: {fileID: 3273906336059927240, guid: 2b927fcd9c1d2124cac2392422329ee5,
        type: 3}
      propertyPath: m_LocalEulerAnglesHint.y
      value: 0
      objectReference: {fileID: 0}
    - target: {fileID: 3273906336059927240, guid: 2b927fcd9c1d2124cac2392422329ee5,
        type: 3}
      propertyPath: m_LocalEulerAnglesHint.z
      value: 0
      objectReference: {fileID: 0}
    - target: {fileID: 3273906336059927243, guid: 2b927fcd9c1d2124cac2392422329ee5,
        type: 3}
      propertyPath: m_Name
      value: Effect_14_BloodSpread
      objectReference: {fileID: 0}
    m_RemovedComponents: []
  m_SourcePrefab: {fileID: 100100000, guid: 2b927fcd9c1d2124cac2392422329ee5, type: 3}
