%YAML 1.1
%TAG !u! tag:unity3d.com,2011:
--- !u!1 &1880086019516512137
GameObject:
  m_ObjectHideFlags: 0
  m_CorrespondingSourceObject: {fileID: 0}
  m_PrefabInstance: {fileID: 0}
  m_PrefabAsset: {fileID: 0}
  serializedVersion: 6
  m_Component:
  - component: {fileID: 427420616781293848}
  m_Layer: 0
  m_Name: Milis
  m_TagString: Untagged
  m_Icon: {fileID: 0}
  m_NavMeshLayer: 0
  m_StaticEditorFlags: 0
  m_IsActive: 1
--- !u!4 &427420616781293848
Transform:
  m_ObjectHideFlags: 0
  m_CorrespondingSourceObject: {fileID: 0}
  m_PrefabInstance: {fileID: 0}
  m_PrefabAsset: {fileID: 0}
  m_GameObject: {fileID: 1880086019516512137}
  m_LocalRotation: {x: 0, y: 0, z: 0, w: 1}
  m_LocalPosition: {x: 0, y: 0, z: 0}
  m_LocalScale: {x: 1, y: 1, z: 1}
  m_Children:
  - {fileID: 449910405316061359}
  m_Father: {fileID: 0}
  m_RootOrder: 0
  m_LocalEulerAnglesHint: {x: 0, y: 0, z: 0}
--- !u!1001 &5244309302062437974
PrefabInstance:
  m_ObjectHideFlags: 0
  serializedVersion: 2
  m_Modification:
    m_TransformParent: {fileID: 427420616781293848}
    m_Modifications:
    - target: {fileID: 5690826612294614777, guid: 90064f2bc1af6b94bad343682f5154f3,
        type: 3}
      propertyPath: m_LocalPosition.x
      value: 0
      objectReference: {fileID: 0}
    - target: {fileID: 5690826612294614777, guid: 90064f2bc1af6b94bad343682f5154f3,
        type: 3}
      propertyPath: m_LocalPosition.y
      value: 0
      objectReference: {fileID: 0}
    - target: {fileID: 5690826612294614777, guid: 90064f2bc1af6b94bad343682f5154f3,
        type: 3}
      propertyPath: m_LocalPosition.z
      value: 0
      objectReference: {fileID: 0}
    - target: {fileID: 5690826612294614777, guid: 90064f2bc1af6b94bad343682f5154f3,
        type: 3}
      propertyPath: m_LocalRotation.x
      value: 0
      objectReference: {fileID: 0}
    - target: {fileID: 5690826612294614777, guid: 90064f2bc1af6b94bad343682f5154f3,
        type: 3}
      propertyPath: m_LocalRotation.y
      value: 0
      objectReference: {fileID: 0}
    - target: {fileID: 5690826612294614777, guid: 90064f2bc1af6b94bad343682f5154f3,
        type: 3}
      propertyPath: m_LocalRotation.z
      value: 0.7071068
      objectReference: {fileID: 0}
    - target: {fileID: 5690826612294614777, guid: 90064f2bc1af6b94bad343682f5154f3,
        type: 3}
      propertyPath: m_LocalRotation.w
      value: 0.7071068
      objectReference: {fileID: 0}
    - target: {fileID: 5690826612294614777, guid: 90064f2bc1af6b94bad343682f5154f3,
        type: 3}
      propertyPath: m_RootOrder
      value: 0
      objectReference: {fileID: 0}
    - target: {fileID: 5690826612294614777, guid: 90064f2bc1af6b94bad343682f5154f3,
        type: 3}
      propertyPath: m_LocalEulerAnglesHint.x
      value: 0
      objectReference: {fileID: 0}
    - target: {fileID: 5690826612294614777, guid: 90064f2bc1af6b94bad343682f5154f3,
        type: 3}
      propertyPath: m_LocalEulerAnglesHint.y
      value: 0
      objectReference: {fileID: 0}
    - target: {fileID: 5690826612294614777, guid: 90064f2bc1af6b94bad343682f5154f3,
        type: 3}
      propertyPath: m_LocalEulerAnglesHint.z
      value: 90
      objectReference: {fileID: 0}
    - target: {fileID: 5690826612294941009, guid: 90064f2bc1af6b94bad343682f5154f3,
        type: 3}
      propertyPath: m_Name
      value: missile
      objectReference: {fileID: 0}
    m_RemovedComponents: []
  m_SourcePrefab: {fileID: 100100000, guid: 90064f2bc1af6b94bad343682f5154f3, type: 3}
--- !u!4 &449910405316061359 stripped
Transform:
  m_CorrespondingSourceObject: {fileID: 5690826612294614777, guid: 90064f2bc1af6b94bad343682f5154f3,
    type: 3}
  m_PrefabInstance: {fileID: 5244309302062437974}
  m_PrefabAsset: {fileID: 0}
